{
    "rabbitmq": {
    "ssl": {
      "cert_chain_file": "/etc/sensu/ssl/cert.pem",
      "private_key_file": "/etc/sensu/ssl/key.pem"
    },
    "host": "127.0.0.1",
    "port": 5671,
    "vhost": "/sensu",
    "user": "sensu",
    "password": "mysecret"
  },
"redis": {
    "host": "127.0.0.1",
    "port": 6379
  },
  "api": {
    "host": "127.0.0.1",
    "port": 4567
  },
    "uchiwa": {
        "port": 3000,
        "stats": 10,
        "refresh": 10000
    },
  "client": {
    "name": "server",
    "address": "127.0.0.1",
    "subscriptions": [ "ALL" ]
  }
}