{
  "rabbitmq": [
    {
      "host": "rabbitmq.pointtoserver.com",
      "port": 5671,
      "vhost": "/sensu",
      "user": "iad",
      "password": "hj09fjrw",
      "heartbeat": 30,
      "prefetch": 50,
      "ssl": {
        "private_key_file": "/etc/sensu/conf.d/client_key.pem",
        "cert_chain_file": "/etc/sensu/conf.d/client_cert.pem"
      }
    },
    {
      "host": "rabbitmq.pointtoserver.com",
      "port": 5672,
      "vhost": "/sensu",
      "user": "iad",
      "password": "hj09fjrw",
      "heartbeat": 30,
      "prefetch": 50,
      "ssl": {
        "private_key_file": "/etc/sensu/conf.d/client_key.pem",
        "cert_chain_file": "/etc/sensu/conf.d/client_cert.pem"
      }
    }
  ]
}

